{
	"info": {
		"_postman_id": "3c0a876a-84b2-44d5-b2e9-d69d2c576c2b",
		"name": "testProject",
		"schema": "https://schema.getpostman.com/json/collection/v2.1.0/collection.json",
		"_exporter_id": "22043199"
	},
	"item": [
		{
			"name": "convertFormCurrencyToAnother",
			"request": {
				"method": "POST",
				"header": [],
				"body": {
					"mode": "formdata",
					"formdata": [
						{
							"key": "current_currency_id",
							"value": "1",
							"type": "text"
						},
						{
							"key": "target_currency_id",
							"value": "2",
							"type": "text"
						},
						{
							"key": "value",
							"value": "100000",
							"type": "text"
						}
					]
				},
				"url": {
					"raw": "http://localhost:8000/api/convertCurrency",
					"protocol": "http",
					"host": [
						"localhost"
					],
					"port": "8000",
					"path": [
						"api",
						"convertCurrency"
					]
				}
			},
			"response": []
		},
		{
			"name": "convertFormCurrencyToDefaultCurrency",
			"request": {
				"method": "POST",
				"header": [],
				"body": {
					"mode": "formdata",
					"formdata": [
						{
							"key": "current_currency_id",
							"value": "2",
							"type": "text"
						},
						{
							"key": "value",
							"value": "100000",
							"type": "text"
						}
					]
				},
				"url": {
					"raw": "http://localhost:8000/api/convertCurrencyToDefault",
					"protocol": "http",
					"host": [
						"localhost"
					],
					"port": "8000",
					"path": [
						"api",
						"convertCurrencyToDefault"
					]
				}
			},
			"response": []
		},
		{
			"name": "calculateProjectCostBySpecificCurrenccy",
			"request": {
				"method": "POST",
				"header": [],
				"body": {
					"mode": "formdata",
					"formdata": [
						{
							"key": "project_id",
							"value": "1",
							"type": "text"
						},
						{
							"key": "target_currency_id",
							"value": "2",
							"type": "text"
						}
					]
				},
				"url": {
					"raw": "http://localhost:8000/api/calculateProjectCostBySpecificCurrency",
					"protocol": "http",
					"host": [
						"localhost"
					],
					"port": "8000",
					"path": [
						"api",
						"calculateProjectCostBySpecificCurrency"
					]
				}
			},
			"response": []
		}
	]
}